{
    "prepare_queue": {
        "installed": [],
        "uninstalled": []
    },
    "config_munge": {
        "files": {}
    },
    "installed_plugins": {
        "cordova-plugin-app-version": {
            "PACKAGE_NAME": "com.benesalustech.newmedmonitor"
        },
        "cordova-plugin-ble-central": {
            "PACKAGE_NAME": "com.benesalustech.newmedmonitor"
        },
        "cordova-plugin-device": {
            "PACKAGE_NAME": "com.benesalustech.newmedmonitor"
        },
        "cordova-plugin-facebook4": {
            "APP_ID": "1675849039113599",
            "APP_NAME": "MedMonitor",
            "PACKAGE_NAME": "com.benesalustech.newmedmonitor"
        },
        "cordova-plugin-inappbrowser": {
            "PACKAGE_NAME": "com.benesalustech.newmedmonitor"
        },
        "cordova-plugin-screen-orientation": {
            "PACKAGE_NAME": "com.benesalustech.newmedmonitor"
        },
        "cordova-plugin-splashscreen": {
            "PACKAGE_NAME": "com.benesalustech.newmedmonitor"
        },
        "cordova-plugin-statusbar": {
            "PACKAGE_NAME": "com.benesalustech.newmedmonitor"
        },
        "cordova-plugin-whitelist": {
            "PACKAGE_NAME": "com.benesalustech.newmedmonitor"
        },
        "cordova-plugin-wkwebview-engine": {
            "PACKAGE_NAME": "com.benesalustech.newmedmonitor"
        },
        "de.appplant.cordova.plugin.local-notification": {
            "PACKAGE_NAME": "com.benesalustech.newmedmonitor"
        },
        "ionic-plugin-keyboard": {
            "PACKAGE_NAME": "com.benesalustech.newmedmonitor"
        },
        "phonegap-plugin-push": {
            "PACKAGE_NAME": "com.benesalustech.newmedmonitor"
        }
    },
    "dependent_plugins": {
        "cordova-plugin-app-event": {
            "PACKAGE_NAME": "com.benesalustech.newmedmonitor"
        }
    }
}